…
``` r
# 2
df %>% 
  group_by(SUBJ) %>% 
  mutate(mtoal = mean(totalW_CHI, na.rm = T))
```

    ## # A tibble: 372 x 21
    ## # Groups:   SUBJ [66]
    ##     SUBJ severity1 Socialization1 nonVerbalIQ1 verbalIQ1 VISIT MOT_MLU
    ##    <dbl>     <int>          <int>        <int>     <int> <dbl>   <dbl>
    ##  1     1         0            108           28        14     1    3.62
    ##  2     1         0            108           28        14     2    3.86
    ##  3     1         0            108           28        14     3    4.32
    ##  4     1         0            108           28        14     4    4.42
    ##  5     1         0            108           28        14     5    5.21
    ##  6     1         0            108           28        14     6    4.66
    ##  7     2        13             85           34        27     1    4.10
    ##  8     2        13             85           34        27     2    4.96
    ##  9     2        13             85           34        27     3    4.15
    ## 10     2        13             85           34        27     4    5.31
    ## # … with 362 more rows, and 14 more variables: CHI_MLU <dbl>,
    ## #   uniqueW_MOT <int>, uniqueW_CHI <int>, totalW_MOT <int>,
    ## #   totalW_CHI <int>, Ethnicity <fct>, Diagnosis <chr>, Gender <chr>,
    ## #   Age <dbl>, severity <int>, Socialization <int>, nonVerbalIQ <int>,
    ## #   verbalIQ <int>, mtoal <dbl>
…
